{"filesize": "", "keyword": "", "list": [{"ID": "c075e6b3e4424098983e9506a550a330", "EPS_NAME": "扬州丽宝日化科技有限公司", "PRODUCT_SN": "苏妆20160071", "CITY_CODE": "86", "XK_COMPLETE_DATE": {"date": 15, "day": 0, "hours": 0, "minutes": 0, "month": 7, "nanos": 0, "seconds": 0, "time": 1628956800000, "timezoneOffset": -480, "year": 121}, "XK_DATE": "2026-08-14", "QF_MANAGER_NAME": "江苏省药品监督管理局", "BUSINESS_LICENSE_NUMBER": "91321016053451286X", "XC_DATE": "2021-08-15", "NUM_": 1}, {"ID": "d8b99c035c4e43d5856834e0a557f70c", "EPS_NAME": "扬州清百荷日化用品有限公司", "PRODUCT_SN": "苏妆20160070", "CITY_CODE": "86", "XK_COMPLETE_DATE": {"date": 15, "day": 0, "hours": 0, "minutes": 0, "month": 7, "nanos": 0, "seconds": 0, "time": 1628956800000, "timezoneOffset": -480, "year": 121}, "XK_DATE": "2026-08-14", "QF_MANAGER_NAME": "江苏省药品监督管理局", "BUSINESS_LICENSE_NUMBER": "91321016MAIMGD7M6U", "XC_DATE": "2021-08-15", "NUM_": 2}, {"ID": "bce8ae89f7324ad18e90d6f08bfbe039", "EPS_NAME": "江苏爱美丽化妆品有限公司", "PRODUCT_SN": "苏妆20160069", "CITY_CODE": "86", "XK_COMPLETE_DATE": {"date": 15, "day": 0, "hours": 0, "minutes": 0, "month": 7, "nanos": 0, "seconds": 0, "time": 1628956800000, "timezoneOffset": -480, "year": 121}, "XK_DATE": "2026-08-14", "QF_MANAGER_NAME": "江苏省药品监督管理局", "BUSINESS_LICENSE_NUMBER": "91321016330909436F", "XC_DATE": "2021-08-15", "NUM_": 3}, {"ID": "70ebfcdeff4f458c8bfcb3935f0a9831", "EPS_NAME": "广东富阳生物科技有限公司", "PRODUCT_SN": "粤妆20170585", "CITY_CODE": null, "XK_COMPLETE_DATE": {"date": 13, "day": 5, "hours": 0, "minutes": 0, "month": 7, "nanos": 0, "seconds": 0, "time": 1628784000000, "timezoneOffset": -480, "year": 121}, "XK_DATE": "2022-11-15", "QF_MANAGER_NAME": "广东省药品监督管理局", "BUSINESS_LICENSE_NUMBER": "91441600779957868W", "XC_DATE": "2021-08-13", "NUM_": 4}, {"ID": "2365e12b2b554e5b864d495713eb895b", "EPS_NAME": "河源然生新材料有限公司", "PRODUCT_SN": "粤妆20161378", "CITY_CODE": null, "XK_COMPLETE_DATE": {"date": 13, "day": 5, "hours": 0, "minutes": 0, "month": 7, "nanos": 0, "seconds": 0, "time": 1628784000000, "timezoneOffset": -480, "year": 121}, "XK_DATE": "2026-08-12", "QF_MANAGER_NAME": "广东省药品监督管理局", "BUSINESS_LICENSE_NUMBER": "91441625694700326Q", "XC_DATE": "2021-08-13", "NUM_": 5}, {"ID": "06f7348e2c6e4245852e4f268f55ac53", "EPS_NAME": "佛山市南海区和顺安富日用品有限公司", "PRODUCT_SN": "粤妆20161048", "CITY_CODE": null, "XK_COMPLETE_DATE": {"date": 13, "day": 5, "hours": 0, "minutes": 0, "month": 7, "nanos": 0, "seconds": 0, "time": 1628784000000, "timezoneOffset": -480, "year": 121}, "XK_DATE": "2026-08-12", "QF_MANAGER_NAME": "广东省药品监督管理局", "BUSINESS_LICENSE_NUMBER": "91440605721173227H", "XC_DATE": "2021-08-13", "NUM_": 6}, {"ID": "88b109685cde4cb2a214cbb32e42eaff", "EPS_NAME": "佛山市善玺化妆品股份有限公司", "PRODUCT_SN": "粤妆20200046", "CITY_CODE": null, "XK_COMPLETE_DATE": {"date": 12, "day": 4, "hours": 0, "minutes": 0, "month": 7, "nanos": 0, "seconds": 0, "time": 1628697600000, "timezoneOffset": -480, "year": 121}, "XK_DATE": "2025-03-09", "QF_MANAGER_NAME": "广东省药品监督管理局", "BUSINESS_LICENSE_NUMBER": "91440606MA53PQ1F5J", "XC_DATE": "2021-08-12", "NUM_": 7}, {"ID": "30db65e299f84c1b97fdcf5071757220", "EPS_NAME": "泰华施清洁用品（广东）有限公司", "PRODUCT_SN": "粤妆20161616", "CITY_CODE": null, "XK_COMPLETE_DATE": {"date": 12, "day": 4, "hours": 0, "minutes": 0, "month": 7, "nanos": 0, "seconds": 0, "time": 1628697600000, "timezoneOffset": -480, "year": 121}, "XK_DATE": "2021-12-15", "QF_MANAGER_NAME": "广东省药品监督管理局", "BUSINESS_LICENSE_NUMBER": "91442000618127548D", "XC_DATE": "2021-08-12", "NUM_": 8}, {"ID": "b79ac62e1304479489e47483ebd7a764", "EPS_NAME": "中山康而美生物科技有限公司", "PRODUCT_SN": "粤妆20161375", "CITY_CODE": null, "XK_COMPLETE_DATE": {"date": 12, "day": 4, "hours": 0, "minutes": 0, "month": 7, "nanos": 0, "seconds": 0, "time": 1628697600000, "timezoneOffset": -480, "year": 121}, "XK_DATE": "2026-08-11", "QF_MANAGER_NAME": "广东省药品监督管理局", "BUSINESS_LICENSE_NUMBER": "914420003383683632", "XC_DATE": "2021-08-12", "NUM_": 9}, {"ID": "511e3b362eee486085414d11d624f7b5", "EPS_NAME": "广州即美化妆品有限公司", "PRODUCT_SN": "粤妆20161327", "CITY_CODE": null, "XK_COMPLETE_DATE": {"date": 12, "day": 4, "hours": 0, "minutes": 0, "month": 7, "nanos": 0, "seconds": 0, "time": 1628697600000, "timezoneOffset": -480, "year": 121}, "XK_DATE": "2026-08-11", "QF_MANAGER_NAME": "广东省药品监督管理局", "BUSINESS_LICENSE_NUMBER": "91440111088161609A", "XC_DATE": "2021-08-12", "NUM_": 10}, {"ID": "620ff8355e624bbf840e039e811986f6", "EPS_NAME": "广州歌帝化妆品有限公司", "PRODUCT_SN": "粤妆20161301", "CITY_CODE": null, "XK_COMPLETE_DATE": {"date": 12, "day": 4, "hours": 0, "minutes": 0, "month": 7, "nanos": 0, "seconds": 0, "time": 1628697600000, "timezoneOffset": -480, "year": 121}, "XK_DATE": "2026-08-11", "QF_MANAGER_NAME": "广东省药品监督管理局", "BUSINESS_LICENSE_NUMBER": "91440111MA59CP3C5B", "XC_DATE": "2021-08-12", "NUM_": 11}, {"ID": "786dd80f166e4675a345a16e1a738388", "EPS_NAME": "汕头市妍琦娜化妆品有限公司", "PRODUCT_SN": "粤妆20161271", "CITY_CODE": null, "XK_COMPLETE_DATE": {"date": 12, "day": 4, "hours": 0, "minutes": 0, "month": 7, "nanos": 0, "seconds": 0, "time": 1628697600000, "timezoneOffset": -480, "year": 121}, "XK_DATE": "2026-08-11", "QF_MANAGER_NAME": "广东省药品监督管理局", "BUSINESS_LICENSE_NUMBER": "91440514MA4UTHG67E", "XC_DATE": "2021-08-12", "NUM_": 12}, {"ID": "ac9827f4985d4067bc7a9dba4fc3c198", "EPS_NAME": "深圳市东尼达日用品有限公司惠东分公司", "PRODUCT_SN": "粤妆20161164", "CITY_CODE": null, "XK_COMPLETE_DATE": {"date": 12, "day": 4, "hours": 0, "minutes": 0, "month": 7, "nanos": 0, "seconds": 0, "time": 1628697600000, "timezoneOffset": -480, "year": 121}, "XK_DATE": "2026-11-15", "QF_MANAGER_NAME": "广东省药品监督管理局", "BUSINESS_LICENSE_NUMBER": "91441323690520408P", "XC_DATE": "2021-08-12", "NUM_": 13}, {"ID": "c7a646c231aa4f6f97404d89c853ab80", "EPS_NAME": "广州市大研生物技术有限公司", "PRODUCT_SN": "粤妆20161133", "CITY_CODE": null, "XK_COMPLETE_DATE": {"date": 12, "day": 4, "hours": 0, "minutes": 0, "month": 7, "nanos": 0, "seconds": 0, "time": 1628697600000, "timezoneOffset": -480, "year": 121}, "XK_DATE": "2026-08-11", "QF_MANAGER_NAME": "广东省药品监督管理局", "BUSINESS_LICENSE_NUMBER": "91440115563954609C", "XC_DATE": "2021-08-12", "NUM_": 14}, {"ID": "bd04623eb5414051abfd708c63240146", "EPS_NAME": "中山市莱迪日用化工有限公司", "PRODUCT_SN": "粤妆20161075", "CITY_CODE": null, "XK_COMPLETE_DATE": {"date": 12, "day": 4, "hours": 0, "minutes": 0, "month": 7, "nanos": 0, "seconds": 0, "time": 1628697600000, "timezoneOffset": -480, "year": 121}, "XK_DATE": "2026-08-11", "QF_MANAGER_NAME": "广东省药品监督管理局", "BUSINESS_LICENSE_NUMBER": "91442000722905725C", "XC_DATE": "2021-08-12", "NUM_": 15}], "orderBy": "createDate", "orderType": "desc", "pageCount": 379, "pageNumber": 1, "pageSize": 15, "property": "", "totalCount": 5680}